…
Q2: Add the location of the origin and destination (i.e. the lat and
lon) to flights.

``` r
airports %>%
    select(faa,lat,lon) %>%
    inner_join(flights, by = c(faa = "dest"))
```

    ## # A tibble: 329,174 x 21
    ##    faa     lat   lon  year month   day dep_time sched_dep_time dep_delay
    ##    <chr> <dbl> <dbl> <int> <int> <int>    <int>          <int>     <dbl>
    ##  1 ABQ    35.0 -107.  2013    10     1     1955           2001        -6
    ##  2 ABQ    35.0 -107.  2013    10     2     2010           2001         9
    ##  3 ABQ    35.0 -107.  2013    10     3     1955           2001        -6
    ##  4 ABQ    35.0 -107.  2013    10     4     2017           2001        16
    ##  5 ABQ    35.0 -107.  2013    10     5     1959           1959         0
    ##  6 ABQ    35.0 -107.  2013    10     6     1959           2001        -2
    ##  7 ABQ    35.0 -107.  2013    10     7     2002           2001         1
    ##  8 ABQ    35.0 -107.  2013    10     8     1957           2001        -4
    ##  9 ABQ    35.0 -107.  2013    10     9     1957           2001        -4
    ## 10 ABQ    35.0 -107.  2013    10    10     2011           2001        10
    ## # … with 329,164 more rows, and 12 more variables: arr_time <int>,
    ## #   sched_arr_time <int>, arr_delay <dbl>, carrier <chr>, flight <int>,
    ## #   tailnum <chr>, origin <chr>, air_time <dbl>, distance <dbl>, hour <dbl>,
    ## #   minute <dbl>, time_hour <dttm>
…
